{"status":"success","data":[{"id":1,"category_id":2,"name_en":"Al-Fatiha","surah_number":1,"recitation":"https%3A%2F%2Fhealtest.sfo3.cdn.digitaloceanspaces.com%2Frecitations%2F01JPHPG5XTQ62GZ8CPC9EZ2D3J.mp3","duration":54,"is_published":1,"ayah_count":7,"sorting":1},{"id":6,"category_id":1,"name_en":"Al Fatiha","surah_number":1,"recitation":"https%3A%2F%2Fhealtest.sfo3.cdn.digitaloceanspaces.com%2Frecitations%2F01JN89V6Q8VW1TWPDXW4YKRBDG.mp3","duration":90,"is_published":1,"ayah_count":7,"sorting":1},{"id":2,"category_id":2,"name_en":"Al Bakarah 1st Part","surah_number":2,"recitation":"https%3A%2F%2Fhealtest.sfo3.cdn.digitaloceanspaces.com%2Frecitations%2F01JPHR54SMFGK6SCSQQ0QQFZDQ.mp3","duration":4578,"is_published":1,"ayah_count":176,"sorting":2},{"id":7,"category_id":1,"name_en":"Al-Baqarah 1st Part","surah_number":2,"recitation":"https%3A%2F%2Fhealtest.sfo3.cdn.digitaloceanspaces.com%2Frecitations%2F01JN8B91RYF8RC3SDNA8ZMYACX.mp3","duration":6931,"is_published":1,"ayah_count":162,"sorting":2},{"id":3,"category_id":2,"name_en":"Al Bakarah - 2nd Part","surah_number":2,"recitation":"https%3A%2F%2Fhealtest.sfo3.cdn.digitaloceanspaces.com%2Frecitations%2F01JPM2QFXQ6VF4QAE0BCZTVGVY.mp3","duration":5186,"is_published":1,"ayah_count":286,"sorting":3},{"id":8,"category_id":1,"name_en":"Al Baqarah - 2nd half","surah_number":2,"recitation":"https%3A%2F%2Fhealtest.sfo3.cdn.digitaloceanspaces.com%2Frecitations%2F01JNJAFD1DREQS4HD1Z3QTTW78.mp3","duration":7649,"is_published":1,"ayah_count":286,"sorting":3},{"id":4,"category_id":2,"name_en":"Al I'mran 1st part","surah_number":3,"recitation":"https%3A%2F%2Fhealtest.sfo3.cdn.digitaloceanspaces.com%2Frecitations%2F01JN853WHWG7WFDDGP31YABWDQ.mp3","duration":2784,"is_published":1,"ayah_count":98,"sorting":4},{"id":9,"category_id":1,"name_en":"Al I'mran 1st part","surah_number":3,"recitation":"https%3A%2F%2Fhealtest.sfo3.cdn.digitaloceanspaces.com%2Frecitations%2F01JNJAY2MJYKM8F17MQTNEZYBA.mp3","duration":3991,"is_published":1,"ayah_count":98,"sorting":4},{"id":5,"category_id":2,"name_en":"Al I'mran 2nd part","surah_number":3,"recitation":"https%3A%2F%2Fhealtest.sfo3.cdn.digitaloceanspaces.com%2Frecitations%2F01JPM6A41ZHA6FGPB2K1FFEPWD.mp3","duration":2820,"is_published":1,"ayah_count":200,"sorting":5},{"id":10,"category_id":1,"name_en":"Al I'mran 2nd part","surah_number":3,"recitation":"https%3A%2F%2Fhealtest.sfo3.cdn.digitaloceanspaces.com%2Frecitations%2F01JNJC1P1TTB8ER6P05NP9B0HV.mp3","duration":4327,"is_published":1,"ayah_count":200,"sorting":5},{"id":13,"category_id":2,"name_en":"An Nisa 1st part","surah_number":4,"recitation":"https%3A%2F%2Fhealtest.sfo3.cdn.digitaloceanspaces.com%2Frecitations%2F01JPH8DT9GRXFAQV3YPEJ832FC.mp3","duration":2694,"is_published":1,"ayah_count":75,"sorting":6},{"id":29,"category_id":1,"name_en":" An-Nisa 1st half","surah_number":4,"recitation":"https%3A%2F%2Fhealtest.sfo3.cdn.digitaloceanspaces.com%2Frecitations%2F01JRFGR9YWC2WGJG6EGJVK5GDN.mp3","duration":70,"is_published":1,"ayah_count":176,"sorting":6},{"id":14,"category_id":2,"name_en":"An Nisa 2nd Part","surah_number":4,"recitation":"https%3A%2F%2Fhealtest.sfo3.cdn.digitaloceanspaces.com%2Frecitations%2F01JPH9E1J9RMA0ENKAXZRNRP4W.mp3","duration":3392,"is_published":1,"ayah_count":176,"sorting":7},{"id":30,"category_id":1,"name_en":"An-Nisa 2nd Half","surah_number":4,"recitation":"https%3A%2F%2Fhealtest.sfo3.cdn.digitaloceanspaces.com%2Frecitations%2F01JRFHBF9J5TYHAJGDYKBEAKM2.mp3","duration":74,"is_published":1,"ayah_count":176,"sorting":7},{"id":15,"category_id":2,"name_en":"Al Ma'idah 1st Part","surah_number":5,"recitation":"https%3A%2F%2Fhealtest.sfo3.cdn.digitaloceanspaces.com%2Frecitations%2F01JPHAYDBMVDAPE0AJ68MWZPDJ.mp3","duration":1886,"is_published":1,"ayah_count":48,"sorting":8},{"id":31,"category_id":1,"name_en":"Al-Ma'idah_1st_Half","surah_number":5,"recitation":"https%3A%2F%2Fhealtest.sfo3.cdn.digitaloceanspaces.com%2Frecitations%2F01JRFHVX3RYY49XJAZM8WDC3M3.mp3","duration":2940,"is_published":1,"ayah_count":120,"sorting":8},{"id":16,"category_id":2,"name_en":"Al Ma'idah 2nd Part","surah_number":5,"recitation":"https%3A%2F%2Fhealtest.sfo3.cdn.digitaloceanspaces.com%2Frecitations%2F01JPHCGTW27C0J57VCZD4PE2QF.mp3","duration":2423,"is_published":1,"ayah_count":120,"sorting":9},{"id":32,"category_id":1,"name_en":"Al-Ma'idah ","surah_number":5,"recitation":"https%3A%2F%2Fhealtest.sfo3.cdn.digitaloceanspaces.com%2Frecitations%2F01JRFJ1ZXARTJ5F7BHF4H574NW.mp3","duration":2940,"is_published":1,"ayah_count":120,"sorting":9},{"id":24,"category_id":2,"name_en":"Al-An'am_1st Half","surah_number":6,"recitation":"https%3A%2F%2Fhealtest.sfo3.cdn.digitaloceanspaces.com%2Frecitations%2F01JRF8FW226EP8B3098GWJ3K84.mp3","duration":2940,"is_published":1,"ayah_count":165,"sorting":10},{"id":33,"category_id":1,"name_en":"Al-An'am_1st Half","surah_number":6,"recitation":"https%3A%2F%2Fhealtest.sfo3.cdn.digitaloceanspaces.com%2Frecitations%2F01JRFJES788H6XBA8EE81HXRT9.mp3","duration":3848,"is_published":1,"ayah_count":165,"sorting":10},{"id":18,"category_id":2,"name_en":"Muzzammil","surah_number":73,"recitation":"https%3A%2F%2Fhealtest.sfo3.cdn.digitaloceanspaces.com%2Frecitations%2F01JPRZ1D6YKWJXMC4A5Q7DVGH9.mp3","duration":378,"is_published":1,"ayah_count":20,"sorting":11},{"id":25,"category_id":2,"name_en":"Al-An'am_2nd Half","surah_number":6,"recitation":"https%3A%2F%2Fhealtest.sfo3.cdn.digitaloceanspaces.com%2Frecitations%2F01JRF8PFMBT64ZH9X8GSZQ89DS.mp3","duration":2940,"is_published":1,"ayah_count":165,"sorting":11},{"id":34,"category_id":1,"name_en":"Al-An'am_2nd Half","surah_number":6,"recitation":"https%3A%2F%2Fhealtest.sfo3.cdn.digitaloceanspaces.com%2Frecitations%2F01JRFK64E10R8B9PM97XSDRPYP.mp3","duration":3848,"is_published":1,"ayah_count":165,"sorting":11},{"id":19,"category_id":2,"name_en":"Al-Qiyamah","surah_number":75,"recitation":"https%3A%2F%2Fhealtest.sfo3.cdn.digitaloceanspaces.com%2Frecitations%2F01JPRZ5NPRD53WXNZPPKPJM6BT.mp3","duration":332,"is_published":1,"ayah_count":40,"sorting":12},{"id":72,"category_id":1,"name_en":"Al-A'raf 1st Part","surah_number":7,"recitation":"https%3A%2F%2Fhealtest.sfo3.cdn.digitaloceanspaces.com%2Frecitations%2F01JS9ADPSG7WZXECMZWNGNFMBQ.mp3","duration":3683,"is_published":1,"ayah_count":206,"sorting":12},{"id":74,"category_id":2,"name_en":"Al-A'raf 1st Part","surah_number":7,"recitation":"https%3A%2F%2Fhealtest.sfo3.cdn.digitaloceanspaces.com%2Frecitations%2F01JS9BWQEJKC2ERHGR3TGVTGZK.mp3","duration":2542,"is_published":1,"ayah_count":206,"sorting":12},{"id":20,"category_id":2,"name_en":"Al- Inshiqaq","surah_number":84,"recitation":"https%3A%2F%2Fhealtest.sfo3.cdn.digitaloceanspaces.com%2Frecitations%2F01JQ0X4BH68AAQSWK31NAMBQZK.mp3","duration":193,"is_published":1,"ayah_count":25,"sorting":13},{"id":73,"category_id":1,"name_en":"Al-A'raf 2nd Part","surah_number":7,"recitation":"https%3A%2F%2Fhealtest.sfo3.cdn.digitaloceanspaces.com%2Frecitations%2F01JS9AG7AX9VBSEKGXK9FZWNMP.mp3","duration":4657,"is_published":1,"ayah_count":206,"sorting":13},{"id":75,"category_id":2,"name_en":"Al-A'raf 2nd Part","surah_number":7,"recitation":"https%3A%2F%2Fhealtest.sfo3.cdn.digitaloceanspaces.com%2Frecitations%2F01JS9C23DHZ9M32A0MBJE32BPH.mp3","duration":3229,"is_published":1,"ayah_count":206,"sorting":13},{"id":21,"category_id":2,"name_en":"Al Buruj","surah_number":85,"recitation":"https%3A%2F%2Fhealtest.sfo3.cdn.digitaloceanspaces.com%2Frecitations%2F01JQ0YYA7TD0KD2BZ8KFJYG3XN.mp3","duration":198,"is_published":1,"ayah_count":22,"sorting":14},{"id":22,"category_id":2,"name_en":"Al Balad","surah_number":90,"recitation":"https%3A%2F%2Fhealtest.sfo3.cdn.digitaloceanspaces.com%2Frecitations%2F01JQ0Z10VWNDR8ZQGQBX1YCKG2.mp3","duration":127,"is_published":1,"ayah_count":20,"sorting":15},{"id":12,"category_id":1,"name_en":"Muzzammil","surah_number":73,"recitation":"https%3A%2F%2Fhealtest.sfo3.cdn.digitaloceanspaces.com%2Frecitations%2F01JNWPA01KCAPVQ0J9Q0308YG6.mp3","duration":553,"is_published":1,"ayah_count":20,"sorting":73},{"id":11,"category_id":1,"name_en":"Al-Mulk ","surah_number":67,"recitation":"https%3A%2F%2Fhealtest.sfo3.cdn.digitaloceanspaces.com%2Frecitations%2F01JNZR17N3AXSWQD5B8HPT7W8F.mp3","duration":798,"is_published":1,"ayah_count":30,"sorting":77},{"id":17,"category_id":2,"name_en":"Al-Mulk","surah_number":67,"recitation":"https%3A%2F%2Fhealtest.sfo3.cdn.digitaloceanspaces.com%2Frecitations%2F01JPHD3NY2HBC2S9M1AS4XD76Z.mp3","duration":500,"is_published":1,"ayah_count":30,"sorting":77},{"id":26,"category_id":2,"name_en":"Nuh","surah_number":71,"recitation":"https%3A%2F%2Fhealtest.sfo3.cdn.digitaloceanspaces.com%2Frecitations%2F01JRFF85YBE6QRZ92YP265600F.mp3","duration":370,"is_published":1,"ayah_count":28,"sorting":81},{"id":35,"category_id":1,"name_en":"Nuh ","surah_number":71,"recitation":"https%3A%2F%2Fhealtest.sfo3.cdn.digitaloceanspaces.com%2Frecitations%2F01JRMH9R3WV560PGGAY1REAV1Y.mp3","duration":550,"is_published":1,"ayah_count":28,"sorting":81},{"id":27,"category_id":2,"name_en":"Surah Al-Jinn","surah_number":72,"recitation":"https%3A%2F%2Fhealtest.sfo3.cdn.digitaloceanspaces.com%2Frecitations%2F01JRFFHNB6FW1ZJM1W7NGS9SHE.mp3","duration":480,"is_published":1,"ayah_count":28,"sorting":82},{"id":36,"category_id":1,"name_en":"Al-Jinn ","surah_number":72,"recitation":"https%3A%2F%2Fhealtest.sfo3.cdn.digitaloceanspaces.com%2Frecitations%2F01JRMHNSXY4T12C1Z9RKESJAY7.mp3","duration":660,"is_published":1,"ayah_count":28,"sorting":82},{"id":37,"category_id":1,"name_en":"Al-Qiyamah","surah_number":75,"recitation":"https%3A%2F%2Fhealtest.sfo3.cdn.digitaloceanspaces.com%2Frecitations%2F01JRMJ4GCKXRWANYPNKBFD3M1M.mp3","duration":480,"is_published":1,"ayah_count":40,"sorting":85},{"id":105,"category_id":2,"name_en":"Abasa","surah_number":80,"recitation":"https%3A%2F%2Fhealtest.sfo3.cdn.digitaloceanspaces.com%2Frecitations%2F01JSK6E3RZ0H7MSZB7RNWQ0VN8.mp3","duration":303,"is_published":1,"ayah_count":42,"sorting":92},{"id":38,"category_id":1,"name_en":"At-Takwir","surah_number":81,"recitation":"https%3A%2F%2Fhealtest.sfo3.cdn.digitaloceanspaces.com%2Frecitations%2F01JRMJE0V23TEK1N7T5323HT1C.mp3","duration":300,"is_published":1,"ayah_count":29,"sorting":93},{"id":104,"category_id":2,"name_en":"At-Takwir","surah_number":81,"recitation":"https%3A%2F%2Fhealtest.sfo3.cdn.digitaloceanspaces.com%2Frecitations%2F01JSK6BSYX43ZBA2EJAHG4ZCBA.mp3","duration":240,"is_published":1,"ayah_count":29,"sorting":93},{"id":39,"category_id":1,"name_en":"Al-Infitar","surah_number":82,"recitation":"https%3A%2F%2Fhealtest.sfo3.cdn.digitaloceanspaces.com%2Frecitations%2F01JRMJMG9QTSBS579BKNB8GNRV.mp3","duration":240,"is_published":1,"ayah_count":19,"sorting":94},{"id":103,"category_id":2,"name_en":"Al-Infitar","surah_number":82,"recitation":"https%3A%2F%2Fhealtest.sfo3.cdn.digitaloceanspaces.com%2Frecitations%2F01JSK5V4MH1EXMA07CGBAC7HA7.mp3","duration":147,"is_published":1,"ayah_count":19,"sorting":94},{"id":69,"category_id":1,"name_en":"Al-Mutaffifin","surah_number":83,"recitation":"https%3A%2F%2Fhealtest.sfo3.cdn.digitaloceanspaces.com%2Frecitations%2F01JS8VMQNG9FT6WT639GE18S0J.mp3","duration":410,"is_published":1,"ayah_count":36,"sorting":95},{"id":102,"category_id":2,"name_en":"Al-Mutaffifin","surah_number":83,"recitation":"https%3A%2F%2Fhealtest.sfo3.cdn.digitaloceanspaces.com%2Frecitations%2F01JSK5QRZ9HWSBV2WB4YQ0SRP1.mp3","duration":285,"is_published":1,"ayah_count":36,"sorting":95},{"id":40,"category_id":1,"name_en":" Al-Inshiqaq","surah_number":84,"recitation":"https%3A%2F%2Fhealtest.sfo3.cdn.digitaloceanspaces.com%2Frecitations%2F01JRMJX0SVKHJ4A990PFABP4K0.mp3","duration":400,"is_published":1,"ayah_count":25,"sorting":96},{"id":41,"category_id":1,"name_en":"Al-Buruj","surah_number":85,"recitation":"https%3A%2F%2Fhealtest.sfo3.cdn.digitaloceanspaces.com%2Frecitations%2F01JRMNY9STHM8752T8A3NCW48W.mp3","duration":300,"is_published":1,"ayah_count":22,"sorting":97},{"id":101,"category_id":2,"name_en":"Al-Buruj","surah_number":85,"recitation":"https%3A%2F%2Fhealtest.sfo3.cdn.digitaloceanspaces.com%2Frecitations%2F01JSK5MKH49QR28HPJ681G7STG.mp3","duration":183,"is_published":1,"ayah_count":22,"sorting":97},{"id":28,"category_id":2,"name_en":"At-Tariq","surah_number":86,"recitation":"https%3A%2F%2Fhealtest.sfo3.cdn.digitaloceanspaces.com%2Frecitations%2F01JRFFZKDMKX3XWZB81D1PSY39.mp3","duration":120,"is_published":1,"ayah_count":17,"sorting":98},{"id":42,"category_id":1,"name_en":"At-Tariq","surah_number":86,"recitation":"https%3A%2F%2Fhealtest.sfo3.cdn.digitaloceanspaces.com%2Frecitations%2F01JRMP6WTANHRQ8VTEVJQGF4PV.mp3","duration":180,"is_published":1,"ayah_count":17,"sorting":98},{"id":68,"category_id":1,"name_en":"Al-A'la","surah_number":87,"recitation":"https%3A%2F%2Fhealtest.sfo3.cdn.digitaloceanspaces.com%2Frecitations%2F01JS8VFM7WF8NAGFWR74X39V8T.mp3","duration":213,"is_published":1,"ayah_count":19,"sorting":99},{"id":100,"category_id":2,"name_en":"Al-A'la","surah_number":87,"recitation":"https%3A%2F%2Fhealtest.sfo3.cdn.digitaloceanspaces.com%2Frecitations%2F01JSEEYHR7408TE0T7WDPGY73Y.mp3","duration":167,"is_published":1,"ayah_count":19,"sorting":99},{"id":70,"category_id":1,"name_en":"Al-Ghashiyah","surah_number":88,"recitation":"https%3A%2F%2Fhealtest.sfo3.cdn.digitaloceanspaces.com%2Frecitations%2F01JS98T4FXVW4Y4WFKGZ8PVDRG.mp3","duration":243,"is_published":1,"ayah_count":26,"sorting":100},{"id":99,"category_id":2,"name_en":"Al-Ghashiyah","surah_number":88,"recitation":"https%3A%2F%2Fhealtest.sfo3.cdn.digitaloceanspaces.com%2Frecitations%2F01JSEEDHG9F425K661AE8SFAPJ.mp3","duration":193,"is_published":1,"ayah_count":26,"sorting":100},{"id":71,"category_id":1,"name_en":"Al-Fajr","surah_number":89,"recitation":"https%3A%2F%2Fhealtest.sfo3.cdn.digitaloceanspaces.com%2Frecitations%2F01JS98XD6KA8XA3P6VFJCSQNZQ.mp3","duration":383,"is_published":1,"ayah_count":30,"sorting":101},{"id":98,"category_id":2,"name_en":"Al-Fajr","surah_number":89,"recitation":"https%3A%2F%2Fhealtest.sfo3.cdn.digitaloceanspaces.com%2Frecitations%2F01JSEEA58BQ61ZWH81VR6XQHXB.mp3","duration":300,"is_published":1,"ayah_count":30,"sorting":101},{"id":43,"category_id":1,"name_en":"Al-Balad","surah_number":90,"recitation":"https%3A%2F%2Fhealtest.sfo3.cdn.digitaloceanspaces.com%2Frecitations%2F01JRMP9NBR5CG1WQNK3B93Z1EK.mp3","duration":180,"is_published":1,"ayah_count":20,"sorting":102},{"id":44,"category_id":1,"name_en":"Ash-Shams","surah_number":91,"recitation":"https%3A%2F%2Fhealtest.sfo3.cdn.digitaloceanspaces.com%2Frecitations%2F01JRMPH5GCDQN7BG071GK3DYMQ.mp3","duration":177,"is_published":1,"ayah_count":15,"sorting":103},{"id":23,"category_id":2,"name_en":"Al-Layl ","surah_number":92,"recitation":"https%3A%2F%2Fhealtest.sfo3.cdn.digitaloceanspaces.com%2Frecitations%2F01JRF7JWFCW7ZJB7XZHGKX3JP1.mp3","duration":180,"is_published":1,"ayah_count":21,"sorting":104},{"id":45,"category_id":1,"name_en":"Al-Layl","surah_number":92,"recitation":"https%3A%2F%2Fhealtest.sfo3.cdn.digitaloceanspaces.com%2Frecitations%2F01JRMPRXKZXZWXEEN3QWKRJH2B.mp3","duration":180,"is_published":1,"ayah_count":21,"sorting":104},{"id":67,"category_id":1,"name_en":"Ad-Duhaa","surah_number":93,"recitation":"https%3A%2F%2Fhealtest.sfo3.cdn.digitaloceanspaces.com%2Frecitations%2F01JS8V455FE9MSJB9NYV5FRR6S.mp3","duration":125,"is_published":1,"ayah_count":11,"sorting":105},{"id":97,"category_id":2,"name_en":"Ad-Duhaa","surah_number":93,"recitation":"https%3A%2F%2Fhealtest.sfo3.cdn.digitaloceanspaces.com%2Frecitations%2F01JSEDBVQNP7GX9QQSX2C55GAE.mp3","duration":99,"is_published":1,"ayah_count":11,"sorting":105},{"id":66,"category_id":1,"name_en":"Ash-Sharh","surah_number":94,"recitation":"https%3A%2F%2Fhealtest.sfo3.cdn.digitaloceanspaces.com%2Frecitations%2F01JS8TY4D0T6QHG1SN983DQVHM.mp3","duration":81,"is_published":1,"ayah_count":8,"sorting":106},{"id":96,"category_id":2,"name_en":"Ash-Sharh(Al Inshirah)","surah_number":94,"recitation":"https%3A%2F%2Fhealtest.sfo3.cdn.digitaloceanspaces.com%2Frecitations%2F01JSED6BMMBFEZP7A8WQB8MD14.mp3","duration":64,"is_published":1,"ayah_count":8,"sorting":106},{"id":65,"category_id":1,"name_en":"At-Tin","surah_number":95,"recitation":"https%3A%2F%2Fhealtest.sfo3.cdn.digitaloceanspaces.com%2Frecitations%2F01JS8TJMSDECYA2AZH9T3SG49C.mp3","duration":99,"is_published":1,"ayah_count":8,"sorting":107},{"id":95,"category_id":2,"name_en":"At-Tin","surah_number":95,"recitation":"https%3A%2F%2Fhealtest.sfo3.cdn.digitaloceanspaces.com%2Frecitations%2F01JSECJK5FNX89DVDH8FB5WS8D.mp3","duration":78,"is_published":1,"ayah_count":8,"sorting":107},{"id":64,"category_id":1,"name_en":"Al-'Alaq","surah_number":96,"recitation":"https%3A%2F%2Fhealtest.sfo3.cdn.digitaloceanspaces.com%2Frecitations%2F01JS8TG5XZDSVF47THWYE55GVQ.mp3","duration":101,"is_published":1,"ayah_count":19,"sorting":108},{"id":94,"category_id":2,"name_en":"Al-'Alaq","surah_number":96,"recitation":"https%3A%2F%2Fhealtest.sfo3.cdn.digitaloceanspaces.com%2Frecitations%2F01JSECBMCPT8CM7TJJCBD63WE2.mp3","duration":165,"is_published":1,"ayah_count":19,"sorting":108},{"id":63,"category_id":1,"name_en":"Al-Qadr","surah_number":97,"recitation":"https%3A%2F%2Fhealtest.sfo3.cdn.digitaloceanspaces.com%2Frecitations%2F01JS8TCQAKY11ZV824FKTS7DYF.mp3","duration":68,"is_published":1,"ayah_count":5,"sorting":109},{"id":93,"category_id":2,"name_en":"Al-Qadr","surah_number":97,"recitation":"https%3A%2F%2Fhealtest.sfo3.cdn.digitaloceanspaces.com%2Frecitations%2F01JSE43J6K40JE2DEXCVXTCMFC.mp3","duration":49,"is_published":1,"ayah_count":5,"sorting":109},{"id":62,"category_id":1,"name_en":"Al-Bayyinah","surah_number":98,"recitation":"https%3A%2F%2Fhealtest.sfo3.cdn.digitaloceanspaces.com%2Frecitations%2F01JS8SZP2TSWTZD91134DMYEMP.mp3","duration":201,"is_published":1,"ayah_count":8,"sorting":110},{"id":92,"category_id":2,"name_en":"Al-Bayyinah","surah_number":98,"recitation":"https%3A%2F%2Fhealtest.sfo3.cdn.digitaloceanspaces.com%2Frecitations%2F01JSE3ZTW8K4ZTHWR5EMQFCAA0.mp3","duration":141,"is_published":1,"ayah_count":8,"sorting":110},{"id":61,"category_id":1,"name_en":"Az-Zalzalah","surah_number":99,"recitation":"https%3A%2F%2Fhealtest.sfo3.cdn.digitaloceanspaces.com%2Frecitations%2F01JS8SX4E0Y9003EKG3JKF818R.mp3","duration":97,"is_published":1,"ayah_count":8,"sorting":111},{"id":91,"category_id":2,"name_en":"Az-Zalzalah","surah_number":99,"recitation":"https%3A%2F%2Fhealtest.sfo3.cdn.digitaloceanspaces.com%2Frecitations%2F01JSE3XHW3419DTV6V4AF17457.mp3","duration":76,"is_published":1,"ayah_count":8,"sorting":111},{"id":60,"category_id":1,"name_en":"Al-'Adiyat","surah_number":100,"recitation":"https%3A%2F%2Fhealtest.sfo3.cdn.digitaloceanspaces.com%2Frecitations%2F01JS6Y9X3VEE3XV6MY6QBE404P.mp3","duration":126,"is_published":1,"ayah_count":11,"sorting":112},{"id":90,"category_id":2,"name_en":"Al-'Adiyat","surah_number":100,"recitation":"https%3A%2F%2Fhealtest.sfo3.cdn.digitaloceanspaces.com%2Frecitations%2F01JSE3AKR8Q0095F0V18CXH3F6.mp3","duration":97,"is_published":1,"ayah_count":11,"sorting":112},{"id":59,"category_id":1,"name_en":"Al-Qari'ah","surah_number":101,"recitation":"https%3A%2F%2Fhealtest.sfo3.cdn.digitaloceanspaces.com%2Frecitations%2F01JS6Y6B09J52S2RR9N7ABT32F.mp3","duration":100,"is_published":1,"ayah_count":11,"sorting":113},{"id":89,"category_id":2,"name_en":"Al-Qari'ah","surah_number":101,"recitation":"https%3A%2F%2Fhealtest.sfo3.cdn.digitaloceanspaces.com%2Frecitations%2F01JSE35D6584Z3NKFD7XBTBXXP.mp3","duration":72,"is_published":1,"ayah_count":11,"sorting":113},{"id":58,"category_id":1,"name_en":"At-Takathur","surah_number":102,"recitation":"https%3A%2F%2Fhealtest.sfo3.cdn.digitaloceanspaces.com%2Frecitations%2F01JS6Y442YR43VNF81DREQH4JT.mp3","duration":101,"is_published":1,"ayah_count":8,"sorting":114},{"id":88,"category_id":2,"name_en":"At-Takathur","surah_number":102,"recitation":"https%3A%2F%2Fhealtest.sfo3.cdn.digitaloceanspaces.com%2Frecitations%2F01JSE33FFP95XXXZ8T8KZCM6RZ.mp3","duration":81,"is_published":1,"ayah_count":8,"sorting":114},{"id":57,"category_id":1,"name_en":"Al-'Asr","surah_number":103,"recitation":"https%3A%2F%2Fhealtest.sfo3.cdn.digitaloceanspaces.com%2Frecitations%2F01JS6XYFBN2SW6K4Y987F2NPKT.mp3","duration":45,"is_published":1,"ayah_count":3,"sorting":115},{"id":87,"category_id":2,"name_en":"Al-'Asr","surah_number":103,"recitation":"https%3A%2F%2Fhealtest.sfo3.cdn.digitaloceanspaces.com%2Frecitations%2F01JSE27SQP9JHY5SYN3ZQ1AQMQ.mp3","duration":33,"is_published":1,"ayah_count":3,"sorting":115},{"id":56,"category_id":1,"name_en":"Al-Humazah","surah_number":104,"recitation":"https%3A%2F%2Fhealtest.sfo3.cdn.digitaloceanspaces.com%2Frecitations%2F01JS6XW2E93A99A2CJ7RZJ218G.mp3","duration":105,"is_published":1,"ayah_count":9,"sorting":116},{"id":86,"category_id":2,"name_en":"Al-Humazah","surah_number":104,"recitation":"https%3A%2F%2Fhealtest.sfo3.cdn.digitaloceanspaces.com%2Frecitations%2F01JSE1MXQ50V78MZ1CR5YEXTGJ.mp3","duration":78,"is_published":1,"ayah_count":9,"sorting":116},{"id":55,"category_id":1,"name_en":"Al-Fil","surah_number":105,"recitation":"https%3A%2F%2Fhealtest.sfo3.cdn.digitaloceanspaces.com%2Frecitations%2F01JS6XM8AD018VXYFTWHBE3XWH.mp3","duration":64,"is_published":1,"ayah_count":5,"sorting":117},{"id":85,"category_id":2,"name_en":"Al-Fil","surah_number":105,"recitation":"https%3A%2F%2Fhealtest.sfo3.cdn.digitaloceanspaces.com%2Frecitations%2F01JSE1JKX0MMPVA71ZHF1GBACB.mp3","duration":45,"is_published":1,"ayah_count":5,"sorting":117},{"id":54,"category_id":1,"name_en":"Quraysh","surah_number":106,"recitation":"https%3A%2F%2Fhealtest.sfo3.cdn.digitaloceanspaces.com%2Frecitations%2F01JSDX37256YBF9Q30QQXT6ZNJ.mp3","duration":54,"is_published":1,"ayah_count":4,"sorting":118},{"id":84,"category_id":2,"name_en":"Quraysh","surah_number":106,"recitation":"https%3A%2F%2Fhealtest.sfo3.cdn.digitaloceanspaces.com%2Frecitations%2F01JSDX663YKA15RNB09XTQTSQX.mp3","duration":55,"is_published":1,"ayah_count":4,"sorting":118},{"id":53,"category_id":1,"name_en":"Al-Ma'un","surah_number":107,"recitation":"https%3A%2F%2Fhealtest.sfo3.cdn.digitaloceanspaces.com%2Frecitations%2F01JS6V42FMGY5VNXGPWSC7QQD6.mp3","duration":71,"is_published":1,"ayah_count":7,"sorting":119},{"id":83,"category_id":2,"name_en":"Al-Ma'un","surah_number":107,"recitation":"https%3A%2F%2Fhealtest.sfo3.cdn.digitaloceanspaces.com%2Frecitations%2F01JSDX9T91QMG9TR2PDMMG06WD.mp3","duration":71,"is_published":1,"ayah_count":7,"sorting":119},{"id":52,"category_id":1,"name_en":"Al-Kawthar","surah_number":108,"recitation":"https%3A%2F%2Fhealtest.sfo3.cdn.digitaloceanspaces.com%2Frecitations%2F01JS6TZRNMYQYBMHKHD440A2FA.mp3","duration":41,"is_published":1,"ayah_count":3,"sorting":120},{"id":82,"category_id":2,"name_en":"Al-Kawthar","surah_number":108,"recitation":"https%3A%2F%2Fhealtest.sfo3.cdn.digitaloceanspaces.com%2Frecitations%2F01JSDXEXTANWFKPZ8MYYPC34ZR.mp3","duration":43,"is_published":1,"ayah_count":3,"sorting":120},{"id":51,"category_id":1,"name_en":"Al-Kafirun","surah_number":109,"recitation":"https%3A%2F%2Fhealtest.sfo3.cdn.digitaloceanspaces.com%2Frecitations%2F01JS6TJGJWNRKE44GGKSQP1WXK.mp3","duration":73,"is_published":1,"ayah_count":6,"sorting":121},{"id":81,"category_id":2,"name_en":"Al-Kafirun","surah_number":109,"recitation":"https%3A%2F%2Fhealtest.sfo3.cdn.digitaloceanspaces.com%2Frecitations%2F01JSDXJRS93PWPZ4KPT07FA343.mp3","duration":73,"is_published":1,"ayah_count":6,"sorting":121},{"id":50,"category_id":1,"name_en":"An-Nasr","surah_number":110,"recitation":"https%3A%2F%2Fhealtest.sfo3.cdn.digitaloceanspaces.com%2Frecitations%2F01JS6T654X0RQ4Y3RB8XE9586G.mp3","duration":53,"is_published":1,"ayah_count":3,"sorting":122},{"id":80,"category_id":2,"name_en":"An-Nasr","surah_number":110,"recitation":"https%3A%2F%2Fhealtest.sfo3.cdn.digitaloceanspaces.com%2Frecitations%2F01JSDXRBK1BXYX6K2XJ7JT5ED3.mp3","duration":55,"is_published":1,"ayah_count":3,"sorting":122},{"id":49,"category_id":1,"name_en":" Surah Lahab (Al-Masad)","surah_number":111,"recitation":"https%3A%2F%2Fhealtest.sfo3.cdn.digitaloceanspaces.com%2Frecitations%2F01JS6T1DKAX9DYRMM0RN7XNQN7.mp3","duration":60,"is_published":1,"ayah_count":5,"sorting":123},{"id":79,"category_id":2,"name_en":"Al-Lahab (Al-Masad)","surah_number":111,"recitation":"https%3A%2F%2Fhealtest.sfo3.cdn.digitaloceanspaces.com%2Frecitations%2F01JS9DWXC4621N41YJ9PSGE0ZG.mp3","duration":61,"is_published":1,"ayah_count":5,"sorting":123},{"id":48,"category_id":1,"name_en":"Al-Ikhlas","surah_number":112,"recitation":"https%3A%2F%2Fhealtest.sfo3.cdn.digitaloceanspaces.com%2Frecitations%2F01JS6SQ5NYAMME3KGQCQD20FJK.mp3","duration":50,"is_published":1,"ayah_count":4,"sorting":124}],"meta":{"current_page":1,"from":1,"last_page":2,"per_page":100,"to":100,"total":105}}